module gitlab.com/Elevarup/ele_fun/bla_repository

go 1.21

require (
	github.com/gorilla/mux v1.8.0
	github.com/ilyakaznacheev/cleanenv v1.5.0
	github.com/lib/pq v1.10.9
)

require (
	github.com/BurntSushi/toml v1.2.1 // indirect
	github.com/joho/godotenv v1.5.1 // indirect
	gopkg.in/yaml.v3 v3.0.1 // indirect
	olympos.io/encoding/edn v0.0.0-20201019073823-d3554ca0b0a3 // indirect
)
